{
  "functions": {
    "source": "functions"
  },
  "hosting": {
    "site": "api-valyu-prod",
    "public": "public",
    "ignore": [
      "firebase.json",
      "**/.*",
      "**/node_modules/**"
    ],
    "rewrites": [
      {
        "source": "**",
        "run": {
          "serviceId": "api-valyu",
          "region": "us-east1"
        }
      }
    ]
  },
  "emulators": {
    "auth": {
      "port": 9099
    },
    "functions": {
      "port": 5001
    },
    "firestore": {
      "port": 8080
    },
    "database": {
      "port": 9000
    },
    "hosting": {
      "port": 5000
    },
    "pubsub": {
      "port": 8085
    },
    "ui": {
      "enabled": true
    }
  }
}
