﻿"mobileNumber","firstName","lastName","gender","dob","emailId","employmentType","employeeCode","panNumber","officePincode","pinCode","currentEmployer","doj","designation","fathername","motherName","bankName","bankAcNo","ifscCode","officeAddress","address1","city","salary"
"9685354410","Aakash","Shukla","Male","1996-07-30","shuklaaakash78@gmail.com","Permanent","78222","GFSPS2494D","122002","122001","PeopleStrong","1/10/2020","Full Stack Developer","Ramesh Shukla","Pushpa Shukla","PNB","88000106180872","PUNB0007200","Bangalore,13th Street","Krishna Enclave","Indore","800000"
"7000569010","Aakash","Shukla","Male","1996-07-30","shuklaaakash78@gmail.com","Permanent","78223","GFSPS2494D","122002","122001","PeopleStrong","1/10/2020","Full Stack Developer","Ramesh Shukla","Pushpa Shukla","PNB","88000106180872","PUNB0007200","Bangalore,13th Street","Krishna Enclave","Indore","800000"
"9450425957","Ramesh","Shukla","Male","1963-05-07","shuklaaakash78@gmail.com","Permanent","78224","GFSPS2494D","122002","122001","PeopleStrong","1/10/2020","Full Stack Developer","Ramesh Shukla","Pushpa Shukla","PNB","88000106180872","PUNB0007200","Bangalore,13th Street","Krishna Enclave","Indore","800000"
"8303898886","Aakash","Shukla","Male","1996-07-30","shuklaaakash78@gmail.com","Permanent","78225","GFSPS2494D","122002","122001","PeopleStrong","1/10/2020","Full Stack Developer","Ramesh Shukla","Pushpa Shukla","PNB","88000106180872","PUNB0007200","Bangalore,13th Street","Krishna Enclave","Indore","800000"
"8800959819","Aakash","Shukla","Male","1996-07-30","shuklaaakash78@gmail.com","Permanent","78226","GFSPS2494D","122002","122001","PeopleStrong","1/10/2020","Full Stack Developer","Ramesh Shukla","Pushpa Shukla","PNB","88000106180872","PUNB0007200","Bangalore,13th Street","Krishna Enclave","Indore","800000"
"8802139220","Aakash","Shukla","Male","1996-07-30","shuklaaakash78@gmail.com","Permanent","78227","GFSPS2494D","122002","122001","PeopleStrong","1/10/2020","Full Stack Developer","Ramesh Shukla","Pushpa Shukla","PNB","88000106180872","PUNB0007200","Bangalore,13th Street","Krishna Enclave","Indore","800000"
"8512851664","Aakash","Shukla","Male","1996-07-30","shuklaaakash78@gmail.com","Permanent","78228","GFSPS2494D","122002","122001","PeopleStrong","1/10/2020","Full Stack Developer","Ramesh Shukla","Pushpa Shukla","PNB","88000106180872","PUNB0007200","Bangalore,13th Street","Krishna Enclave","Indore","800000"
"9010827808","Aakash","Shukla","Male","1996-07-30","shuklaaakash78@gmail.com","Permanent","78229","GFSPS2494D","122002","122001","PeopleStrong","1/10/2020","Full Stack Developer","Ramesh Shukla","Pushpa Shukla","PNB","88000106180872","PUNB0007200","Bangalore,13th Street","Krishna Enclave","Indore","800000"
"9711855852","Aakash","Shukla","Male","1996-07-30","shuklaaakash78@gmail.com","Permanent","78223","GFSPS2494D","122002","122001","PeopleStrong","1/10/2020","Full Stack Developer","Ramesh Shukla","Pushpa Shukla","PNB","88000106180872","PUNB0007200","Bangalore,13th Street","Krishna Enclave","Indore","800000"
"8860074158","Aakash","Shukla","Male","1996-07-30","shuklaaakash78@gmail.com","Permanent","78223","GFSPS2494D","122002","122001","PeopleStrong","1/10/2020","Full Stack Developer","Ramesh Shukla","Pushpa Shukla","PNB","88000106180872","PUNB0007200","Bangalore,13th Street","Krishna Enclave","Indore","800000"
"8743850717","Aakash","Shukla","Male","1996-07-30","shuklaaakash78@gmail.com","Permanent","78223","GFSPS2494D","122002","122001","PeopleStrong","1/10/2020","Full Stack Developer","Ramesh Shukla","Pushpa Shukla","PNB","88000106180872","PUNB0007200","Bangalore,13th Street","Krishna Enclave","Indore","800000"